Nombre;Matricula
"Marvin Rees; Mr ";AULC18
"Gordon Oliver; Mr";BITM49
"Jules Pipe; Mr";BYTL73
"Norma Redfearn; Mrs";CCQS45
"Paul Dennett; Mr";CONN33
"Sadiq Khan; Mr";CWUH94
"Steve Bullock; Mr";DOVH49
"Kate Allsop; Ms";EFVS60
"Robin Wales; Mr";FHUE42
"Dave Hodgson; Mr";HHMB18
"Ros Jones; Ms";IIZE45
"Mike Starkie; Mr";KBDR65
"Joe Anderson; Mr";QISN45
"John Biggs; Mr";RYXW50
"Dave Budd; Mr";TCJM70
"Dorothy Thornhill; Mrs";XUZR60
"Peter Soulsby; Mr";YKOQ87
